{
  "project_info": {
    "project_number": "39992968151",
    "firebase_url": "https://androidloginm143k3v1n.firebaseio.com",
    "project_id": "androidloginm143k3v1n",
    "storage_bucket": "androidloginm143k3v1n.appspot.com"
  },
  "client": [
    {
      "client_info": {
        "mobilesdk_app_id": "1:39992968151:android:1d185b10b4a4f3fd",
        "android_client_info": {
          "package_name": "com.k3v1ns4n.loginandroidfirebase"
        }
      },
      "oauth_client": [
        {
          "client_id": "39992968151-jc3gmpd5d2chckchfh9m012k87hd4dke.apps.googleusercontent.com",
          "client_type": 3
        }
      ],
      "api_key": [
        {
          "current_key": "AIzaSyBE-KQTeZk8fYwWrquiYP00ubdQ0NBqPMw"
        }
      ],
      "services": {
        "analytics_service": {
          "status": 1
        },
        "appinvite_service": {
          "status": 1,
          "other_platform_oauth_client": []
        },
        "ads_service": {
          "status": 2
        }
      }
    }
  ],
  "configuration_version": "1"
}