# Blender MTL File: 'crdotx_saphire.blend'
# Material Count: 1

newmtl Saphire
Ns 225.000000
Ka 1.000000 1.000000 1.000000
Kd 0.000000 0.366688 1.000000
Ks 0.432990 0.432990 0.432990
Ke 0.0 0.0 0.0
Ni 1.000000
d 1.000000
illum 2
