<?xml version="1.0" encoding="UTF-8"?>
<COLLADA xmlns="http://www.collada.org/2005/11/COLLADASchema" version="1.4.1">
 <asset>
  <contributor>
   <authoring_tool>SceneKit Collada Exporter v1.0</authoring_tool>
  </contributor>
  <created>2019-06-27T15:58:27Z</created>
  <modified>2019-06-27T15:58:27Z</modified>
  <unit meter="1.000000"/>
  <up_axis>Y_UP</up_axis>
 </asset>
 <library_lights>
  <light id="Lamp-light" name="Lamp">
   <technique_common>
    <point>
     <color>1 1 1</color>
     <constant_attenuation>0</constant_attenuation>
     <linear_attenuation>0</linear_attenuation>
     <quadratic_attenuation>1</quadratic_attenuation>
    </point>
   </technique_common>
   <extra>
    <technique profile="SceneKit">
     <attenuationStart>0</attenuationStart>
     <attenuationEnd>0</attenuationEnd>
     <attenuationFalloffExponent>2</attenuationFalloffExponent>
     <intensity>1000</intensity>
    </technique>
   </extra>
  </light>
 </library_lights>
 <library_materials>
  <material id="material" name="material">
   <instance_effect url="#effect_material"/>
  </material>
 </library_materials>
 <library_effects>
  <effect id="effect_material">
   <profile_COMMON>
    <technique sid="common">
     <phong>
      <emission>
       <color>0.1199 0.1199 0.1199 1</color>
      </emission>
      <ambient>
       <color>0.243179 0.243179 0.243179 1</color>
      </ambient>
      <diffuse>
       <color>1 1 1 1</color>
      </diffuse>
      <specular>
       <color>0 0 0 1</color>
      </specular>
      <shininess>
       <float>100</float>
      </shininess>
      <reflective>
       <color>0 0 0 1</color>
      </reflective>
      <transparent opaque="A_ONE">
       <color>1 1 1 1</color>
      </transparent>
      <transparency>
       <float>1</float>
      </transparency>
      <index_of_refraction>
       <float>1</float>
      </index_of_refraction>
     </phong>
    </technique>
   </profile_COMMON>
   <extra>
    <technique profile="SceneKit">
     <litPerPixel>1</litPerPixel>
     <ambient_diffuse_lock>1</ambient_diffuse_lock>
    </technique>
   </extra>
  </effect>
 </library_effects>
 <library_geometries>
  <geometry id="Box001_Untitled" name="Box001_Untitled">
   <mesh>
    <source id="geometrySource1">
     <float_array id="ID2-array" count="396">-2.02379 -0.130942 0.058074 2.03593 0.109157 -0 -1.96572 0.109157 -0 2.03593 0.109156 -4.00165 -2.02379 -0.130942 -4.05972 -1.96572 0.109156 -4.00165 1.63283 0.032062 -0.403103 -1.56262 0.032062 -3.59855 -1.56262 0.032062 -0.403103 2.094 -0.130942 0.058074 2.03593 0.109156 -4.00165 2.03593 0.109157 -0 -1.86079 -0.130942 -0.10493 1.931 -0.130942 -3.89672 1.931 -0.130942 -0.10493 -1.96572 0.109157 -0 -2.02379 -0.130942 -4.05972 -2.02379 -0.130942 0.058074 -1.96572 0.109157 -0 1.79583 0.109157 -0.240099 -1.72562 0.109157 -0.240099 2.03593 0.109156 -4.00165 1.79583 0.109157 -0.240099 2.03593 0.109157 -0 -1.96572 0.109156 -4.00165 1.79583 0.109156 -3.76155 2.03593 0.109156 -4.00165 -1.96572 0.109157 -0 -1.72562 0.109156 -3.76155 -1.96572 0.109156 -4.00165 1.79583 0.109157 -0.240099 -1.72562 0.032062 -0.240099 -1.72562 0.109157 -0.240099 1.79583 0.109156 -3.76155 1.79583 0.032062 -0.240099 1.79583 0.109157 -0.240099 -1.72562 0.109156 -3.76155 1.79583 0.032062 -3.76155 1.79583 0.109156 -3.76155 -1.72562 0.109157 -0.240099 -1.72562 0.032062 -3.76155 -1.72562 0.109156 -3.76155 1.79583 0.032062 -0.240099 -1.56262 0.032062 -0.403103 -1.72562 0.032062 -0.240099 1.79583 0.032062 -3.76155 1.63283 0.032062 -0.403103 1.79583 0.032062 -0.240099 1.79583 0.032062 -3.76155 -1.56262 0.032062 -3.59855 1.63283 0.032062 -3.59855 -1.72562 0.032062 -0.240099 -1.56262 0.032062 -3.59855 -1.72562 0.032062 -3.76155 -2.02379 -0.130942 0.058074 1.931 -0.130942 -0.10493 2.094 -0.130942 0.058074 -2.02379 -0.130942 -4.05972 -1.86079 -0.130942 -0.10493 -2.02379 -0.130942 0.058074 2.094 -0.130942 -4.05972 -1.86079 -0.130942 -3.89672 -2.02379 -0.130942 -4.05972 2.094 -0.130942 0.058074 1.931 -0.130942 -3.89672 2.094 -0.130942 -4.05972 -2.02379 -0.130942 0.058074 2.094 -0.130942 0.058074 2.03593 0.109157 -0 2.03593 0.109156 -4.00165 2.094 -0.130942 -4.05972 -2.02379 -0.130942 -4.05972 1.63283 0.032062 -0.403103 1.63283 0.032062 -3.59855 -1.56262 0.032062 -3.59855 2.094 -0.130942 0.058074 2.094 -0.130942 -4.05972 2.03593 0.109156 -4.00165 -1.86079 -0.130942 -0.10493 -1.86079 -0.130942 -3.89672 1.931 -0.130942 -3.89672 -1.96572 0.109157 -0 -1.96572 0.109156 -4.00165 -2.02379 -0.130942 -4.05972 -1.96572 0.109157 -0 2.03593 0.109157 -0 1.79583 0.109157 -0.240099 2.03593 0.109156 -4.00165 1.79583 0.109156 -3.76155 1.79583 0.109157 -0.240099 -1.96572 0.109156 -4.00165 -1.72562 0.109156 -3.76155 1.79583 0.109156 -3.76155 -1.96572 0.109157 -0 -1.72562 0.109157 -0.240099 -1.72562 0.109156 -3.76155 1.79583 0.109157 -0.240099 1.79583 0.032062 -0.240099 -1.72562 0.032062 -0.240099 1.79583 0.109156 -3.76155 1.79583 0.032062 -3.76155 1.79583 0.032062 -0.240099 -1.72562 0.109156 -3.76155 -1.72562 0.032062 -3.76155 1.79583 0.032062 -3.76155 -1.72562 0.109157 -0.240099 -1.72562 0.032062 -0.240099 -1.72562 0.032062 -3.76155 1.79583 0.032062 -0.240099 1.63283 0.032062 -0.403103 -1.56262 0.032062 -0.403103 1.79583 0.032062 -3.76155 1.63283 0.032062 -3.59855 1.63283 0.032062 -0.403103 1.79583 0.032062 -3.76155 -1.72562 0.032062 -3.76155 -1.56262 0.032062 -3.59855 -1.72562 0.032062 -0.240099 -1.56262 0.032062 -0.403103 -1.56262 0.032062 -3.59855 -2.02379 -0.130942 0.058074 -1.86079 -0.130942 -0.10493 1.931 -0.130942 -0.10493 -2.02379 -0.130942 -4.05972 -1.86079 -0.130942 -3.89672 -1.86079 -0.130942 -0.10493 2.094 -0.130942 -4.05972 1.931 -0.130942 -3.89672 -1.86079 -0.130942 -3.89672 2.094 -0.130942 0.058074 1.931 -0.130942 -0.10493 1.931 -0.130942 -3.89672 </float_array>
     <technique_common>
      <accessor source="#ID2-array" count="132" stride="3">
       <param name="X" type="float"/>
       <param name="Y" type="float"/>
       <param name="Z" type="float"/>
      </accessor>
     </technique_common>
    </source>
    <source id="geometrySource3">
     <float_array id="ID4-array" count="396">0 0.235096 0.971972 0 0.235096 0.971972 0 0.235096 0.971972 0 0.235096 -0.971972 0 0.235099 -0.971972 0 0.235099 -0.971971 0 1 -0 0 1 -0 0 1 -0 0.971972 0.235096 -0 0.971972 0.235097 -0 0.971972 0.235096 -0 0 -1 -0 0 -1 -0 0 -1 -0 -0.971972 0.235096 -0 -0.971972 0.235097 -0 -0.971972 0.235096 -0 0 1 -1.41423e-07 0 1 -1.2614e-07 -1.40994e-07 1 -1.42815e-07 -1.19795e-07 1 -1.41424e-07 0 1 -1.2614e-07 1.20197e-07 1 -1.25677e-07 1.35706e-07 1 -1.25677e-07 -1.40993e-07 1 -1.42815e-07 -1.19795e-07 1 -1.41424e-07 0 1 -1.41423e-07 1.28221e-07 1 -1.26141e-07 1.35706e-07 1 -1.25677e-07 0 0 -1 0 0 -1 0 0 -1 -1 0 -0 -1 0 -0 -1 0 -0 0 0 1 0 0 1 0 0 1 1 0 -0 1 0 -0 1 0 -0 0 1 -0 0 1 -0 0 1 -0 0 1 -0 0 1 -0 0 1 -0 0 1 -0 0 1 -0 0 1 -0 0 1 -0 0 1 -0 0 1 -0 0 -1 -0 0 -1 -0 0 -1 -0 0 -1 -0 0 -1 -0 0 -1 -0 0 -1 -0 0 -1 -0 0 -1 -0 0 -1 -0 0 -1 -0 0 -1 -0 0 0.235096 0.971972 0 0.235096 0.971972 0 0.235096 0.971972 0 0.235096 -0.971972 0 0.235096 -0.971972 0 0.235099 -0.971972 0 1 -0 0 1 -0 0 1 -0 0.971972 0.235096 -0 0.971972 0.235097 -0 0.971972 0.235097 -0 0 -1 -0 0 -1 -0 0 -1 -0 -0.971972 0.235096 -0 -0.971972 0.235097 -1.20597e-07 -0.971972 0.235097 -0 0 1 -1.41423e-07 1.20197e-07 1 -1.25677e-07 0 1 -1.2614e-07 -1.19795e-07 1 -1.41424e-07 -1.40993e-07 1 -1.42815e-07 0 1 -1.2614e-07 1.35706e-07 1 -1.25677e-07 1.28221e-07 1 -1.26141e-07 -1.40993e-07 1 -1.42815e-07 0 1 -1.41423e-07 -1.40994e-07 1 -1.42815e-07 1.28221e-07 1 -1.26141e-07 0 0 -1 0 0 -1 0 0 -1 -1 0 -0 -1 0 -0 -1 0 -0 0 0 1 0 0 1 0 0 1 1 0 -0 1 0 -0 1 0 -0 0 1 -0 0 1 -0 0 1 -0 0 1 -0 0 1 -0 0 1 -0 0 1 -0 0 1 -0 0 1 -0 0 1 -0 0 1 -0 0 1 -0 0 -1 -0 0 -1 -0 0 -1 -0 0 -1 -0 0 -1 -0 0 -1 -0 0 -1 -0 0 -1 -0 0 -1 -0 0 -1 -0 0 -1 -0 0 -1 -0 </float_array>
     <technique_common>
      <accessor source="#ID4-array" count="132" stride="3">
       <param name="X" type="float"/>
       <param name="Y" type="float"/>
       <param name="Z" type="float"/>
      </accessor>
     </technique_common>
    </source>
    <source id="geometrySource5">
     <float_array id="ID6-array" count="264">0.66875 0.08811 0.0356679 0.050669 0.659694 0.050669 0.656524 0.202031 0.0234409 0.239473 0.032497 0.202031 0.716453 0.284547 0.010886 0.990114 0.010886 0.284547 0.910681 0.32274 0.87324 0.955822 0.87324 0.331796 0.983433 0.015516 0.724484 0.274465 0.724484 0.015516 0.843196 0.336327 0.805754 0.96941 0.805754 0.327271 0.052695 0.09177 0.631001 0.128684 0.0896079 0.128684 0.914728 0.350851 0.951641 0.929158 0.914728 0.966071 0.044971 0.198271 0.623277 0.161358 0.66019 0.198271 0.77584 0.966666 0.738927 0.38836 0.77584 0.351446 0.626965 0.132154 0.085569 0.144007 0.085569 0.132154 0.966549 0.928292 0.954697 0.386899 0.96655 0.386899 0.0788 0.1584 0.620189 0.146548 0.620189 0.1584 0.725161 0.435433 0.737014 0.976827 0.725161 0.976827 0.97658 0.025204 0.747225 0.036336 0.736093 0.025204 0.97658 0.265691 0.965448 0.036336 0.97658 0.025204 0.97658 0.265691 0.747225 0.254559 0.965448 0.254559 0.736093 0.025204 0.747225 0.254559 0.736093 0.265691 0.678375 0.021508 0.070364 0.046569 0.045303 0.021508 0.77869 0.34366 0.803751 0.951671 0.77869 0.976732 0.030154 0.268228 0.638166 0.243167 0.663227 0.268228 0.870722 0.964827 0.845661 0.356816 0.870722 0.331755 0.66875 0.08811 0.026612 0.08811 0.0356679 0.050669 0.656524 0.202031 0.665581 0.239473 0.0234409 0.239473 0.716453 0.284547 0.716453 0.990114 0.010886 0.990114 0.910681 0.32274 0.910681 0.964878 0.87324 0.955822 0.983433 0.015516 0.983433 0.274465 0.724484 0.274465 0.843196 0.336327 0.843196 0.960354 0.805754 0.96941 0.052695 0.09177 0.667914 0.09177 0.631001 0.128684 0.914728 0.350851 0.951641 0.387764 0.951641 0.929158 0.044971 0.198271 0.081884 0.161358 0.623277 0.161358 0.77584 0.966666 0.738927 0.929753 0.738927 0.38836 0.626965 0.132154 0.626965 0.144007 0.085569 0.144007 0.966549 0.928292 0.954697 0.928292 0.954697 0.386899 0.0788 0.1584 0.0788 0.146548 0.620189 0.146548 0.725161 0.435433 0.737014 0.435433 0.737014 0.976827 0.97658 0.025204 0.965448 0.036336 0.747225 0.036336 0.97658 0.265691 0.965448 0.254559 0.965448 0.036336 0.97658 0.265691 0.736093 0.265691 0.747225 0.254559 0.736093 0.025204 0.747225 0.036336 0.747225 0.254559 0.678375 0.021508 0.653315 0.046569 0.070364 0.046569 0.77869 0.34366 0.803751 0.36872 0.803751 0.951671 0.030154 0.268228 0.055215 0.243167 0.638166 0.243167 0.870722 0.964827 0.845661 0.939767 0.845661 0.356816 </float_array>
     <technique_common>
      <accessor source="#ID6-array" count="132" stride="2">
       <param name="S" type="float"/>
       <param name="T" type="float"/>
      </accessor>
     </technique_common>
    </source>
    <vertices id="geometrySource1-vertices">
     <input semantic="POSITION" source="#geometrySource1"/>
     <input semantic="NORMAL" source="#geometrySource3"/>
    </vertices>
    <triangles count="44" material="geometryElement7">
     <input semantic="VERTEX" offset="0" source="#geometrySource1-vertices"/>
     <input semantic="NORMAL" offset="0" source="#geometrySource3"/>
     <input semantic="TEXCOORD" offset="0" source="#geometrySource5" set="1"/>
     <p>0 1 2 3 4 5 6 7 8 9 10 11 12 13 14 15 16 17 18 19 20 21 22 23 24 25 26 27 28 29 30 31 32 33 34 35 36 37 38 39 40 41 42 43 44 45 46 47 48 49 50 51 52 53 54 55 56 57 58 59 60 61 62 63 64 65 66 67 68 69 70 71 72 73 74 75 76 77 78 79 80 81 82 83 84 85 86 87 88 89 90 91 92 93 94 95 96 97 98 99 100 101 102 103 104 105 106 107 108 109 110 111 112 113 114 115 116 117 118 119 120 121 122 123 124 125 126 127 128 129 130 131 </p>
    </triangles>
   </mesh>
  </geometry>
 </library_geometries>
 <library_visual_scenes>
  <visual_scene id="scene8">
   <node id="Lamp" name="Lamp">
    <matrix>-0.2908646 0.5663931 0.7711008 5.841471 -0.05518897 0.7946723 -0.6045246 6.238799 -0.955171 -0.2183911 -0.1998834 4.791377 0 0 0 1 </matrix>
    <instance_light url="#Lamp-light"/>
   </node>
   <node id="node9" name="Box001_Untitled">
    <matrix>1 0 0 0 0 1.788139e-07 -0.9999998 0 0 0.9999998 1.788139e-07 0 0 0 0 1 </matrix>
    <instance_geometry url="#Box001_Untitled">
     <bind_material>
      <technique_common>
       <instance_material symbol="geometryElement7" target="#material"/>
      </technique_common>
     </bind_material>
    </instance_geometry>
   </node>
  </visual_scene>
 </library_visual_scenes>
 <scene>
  <instance_visual_scene url="#scene8"/>
 </scene>
</COLLADA>
